3afe:1900:4545:3:200:f8ff:fe21:67cf 24438316439806927 163120557426810883
FE80:0000:0000:0000:0202:B3FF:FE1E:8329 11216050090722349 108086391056891904
FE80:0000:0000:0000:8329:8329:8329:8329 -195524566378421463 108086391056891904
FE80:1a11:0000:2320:8329:8229:8329:81329 -8125514256637792527 10853273010116704
2001:db8:0:1:1:1:1:2 281479271745489 16139568115545161
2021:db8:0:1aa:21:1:31:1baa 9288678521637290 2313918115548586
2001:cdba:0000:1000:0000:0000:3257:9652 18446220914 30682938015744